Adding a regression line on a ggplot2
…
This method while pleasing doesnt answer the question at hand. It doesnt let us add our already fitted model, but instead fits a model itself.

using broom::augment()

You can use the broom package to extract various information from the model fit.

library(broom)
augment(my_fit)

# A tibble: 23 x 8
   Population  Year .fitted .resid .std.resid   .hat .sigma .cooksd
        <dbl> <int>   <dbl>  <dbl>      <dbl>  <dbl>  <dbl>   <dbl>
 1        3.9  1790  -45.7   49.6       1.94  0.163    26.0 0.365  
 2        5.3  1800  -32.1   37.4       1.44  0.142    27.2 0.173  
 3        7.2  1810  -18.5   25.7       0.980 0.124    28.0 0.0676 
 4        9.6  1820   -4.85  14.5       0.547 0.107    28.5 0.0179 
 5       12.9  1830    8.75   4.15      0.156 0.0919   28.6 0.00123
 6       17.1  1840   22.4   -5.25     -0.196 0.0791   28.6 0.00164
 7       23.2  1850   36.0  -12.8      -0.472 0.0682   28.5 0.00816
 8       31.4  1860   49.6  -18.2      -0.669 0.0593   28.4 0.0141 
 9       38.6  1870   63.2  -24.6      -0.902 0.0524   28.1 0.0225 
10       50.2  1880   76.8  -26.6      -0.973 0.0474   28.0 0.0236 
#  with 13 more rows
…
